^D:\USERS\BISHAL SANTRA\DOCUMENTS\VISUAL STUDIO 2013\PROJECTS\CUMATPRO_V1\CUMATPRO_V1.1\X64\DEBUG\DLLAYER_KERNELS.CU.OBJ|D:\USERS\BISHAL SANTRA\DOCUMENTS\VISUAL STUDIO 2013\PROJECTS\CUMATPRO_V1\CUMATPRO_V1.1\X64\DEBUG\IMLOADER.OBJ|D:\USERS\BISHAL SANTRA\DOCUMENTS\VISUAL STUDIO 2013\PROJECTS\CUMATPRO_V1\CUMATPRO_V1.1\X64\DEBUG\KERNEL.CU.OBJ|D:\USERS\BISHAL SANTRA\DOCUMENTS\VISUAL STUDIO 2013\PROJECTS\CUMATPRO_V1\CUMATPRO_V1.1\X64\DEBUG\RANDOM_KERNELS.CU.OBJ|D:\USERS\BISHAL SANTRA\DOCUMENTS\VISUAL STUDIO 2013\PROJECTS\CUMATPRO_V1\CUMATPRO_V1.1\X64\DEBUG\TIMER.OBJ|D:\USERS\BISHAL SANTRA\DOCUMENTS\VISUAL STUDIO 2013\PROJECTS\CUMATPRO_V1\CUMATPRO_V1.1\X64\DEBUG\UTILITIES.OBJ
D:\USERS\BISHAL SANTRA\DOCUMENTS\VISUAL STUDIO 2013\PROJECTS\CUMATPRO_V1\X64\DEBUG\CUMATPRO_V1.1.ILK
D:\USERS\BISHAL SANTRA\DOCUMENTS\VISUAL STUDIO 2013\PROJECTS\CUMATPRO_V1\X64\DEBUG\CUMATPRO_V1.1.EXE
D:\USERS\BISHAL SANTRA\DOCUMENTS\VISUAL STUDIO 2013\PROJECTS\CUMATPRO_V1\X64\DEBUG\CUMATPRO_V1.1.PDB
